{
    "/js/scripts.bundle.js": "/js/scripts.bundle.js",
    "/js/vendor.bundle.js": "/js/vendor.bundle.js",
    "/css/vendor.bundle.css": "/css/vendor.bundle.css",
    "/css/styles.bundle.css": "/css/styles.bundle.css"
}
